(20-1) Regression Analysis - COVID-19
…
X_pred <- Brazil_valid$Days_after_First_Case
Y_pred <- Brazil_valid$Cases

Brazil_pred <- Brazil_valid %>%
  mutate(Logistic_pred = predict(fit_log_B, data.frame(X = X_pred)),
         Ber_pred = predict(fit_Ber_B, data.frame(X = X_pred)),
         Gom_pred = predict(fit_Gom_B, data.frame(X = X_pred)))

Brazil_pred %>%
  select(2, 4, 7:9)

## # A tibble: 42 x 5
##    Date       Cases Logistic_pred Ber_pred Gom_pred
##    <date>     <int>         <dbl>    <dbl>    <dbl>
##  1 2020-04-20 40743        40005.   41060.   41015.
##  2 2020-04-21 43079        42041.   43780.   43710.
##  3 2020-04-22 45757        43987.   46576.   46475.
##  4 2020-04-23 50036        45829.   49443.   49306.
##  5 2020-04-24 54043        47560.   52378.   52198.
##  6 2020-04-25 59324        49173.   55377.   55147.
##  7 2020-04-26 63100        50666.   58434.   58146.
##  8 2020-04-27 67446        52038.   61546.   61191.
##  9 2020-04-28 73235        53292.   64707.   64277.
## 10 2020-04-29 79685        54432.   67913.   67399.
## # ... with 32 more rows
…
